"id","name","model_id:id","group_id:id","perm_read","perm_write","perm_create","perm_unlink"
"access_gmb_res_partner_heading_stg_u","gmb.res_partner_heading_stg","model_gmb_res_partner_heading_stg","sales_team.group_sale_salesman",1,0,0,0
"access_gmb_res_partner_heading_stg_m","gmb.res_partner_heading_stg","model_gmb_res_partner_heading_stg","sales_team.group_sale_manager",1,1,1,1

"access_gmb_res_partner_address_stg_u","gmb.res_partner_address_stg","model_gmb_res_partner_address_stg","sales_team.group_sale_salesman",1,0,0,0
"access_gmb_res_partner_address_stg_m","gmb.res_partner_address_stg","model_gmb_res_partner_address_stg","sales_team.group_sale_manager",1,1,1,1


"access_gmb_res_partner_contact_stg_u","gmb.res_partner_contact_stg","model_gmb_res_partner_contact_stg","sales_team.group_sale_salesman",1,0,0,0
"access_gmb_res_partner_contact_stg_m","gmb.res_partner_contact_stg","model_gmb_res_partner_contact_stg","sales_team.group_sale_manager",1,1,1,1


"access_gmb_res_partner_account_stg_u","gmb.res_partner_account_stg","model_gmb_res_partner_account_stg","sales_team.group_sale_salesman",1,0,0,0
"access_gmb_res_partner_account_stg_m","gmb.res_partner_account_stg","model_gmb_res_partner_account_stg","sales_team.group_sale_manager",1,1,1,1


